%YAML 1.1
%TAG !u! tag:unity3d.com,2011:
--- !u!114 &11400000
MonoBehaviour:
  m_ObjectHideFlags: 0
  m_CorrespondingSourceObject: {fileID: 0}
  m_PrefabInstance: {fileID: 0}
  m_PrefabAsset: {fileID: 0}
  m_GameObject: {fileID: 0}
  m_Enabled: 1
  m_EditorHideFlags: 0
  m_Script: {fileID: 11500000, guid: 9d1514134bc4fbd41bb739b1b9a49231, type: 3}
  m_Name: Platform
  m_EditorClassIdentifier: 
  m_DefaultSprite: {fileID: 21300002, guid: 18c2e9875be795244a037ebf31368a4b, type: 3}
  m_DefaultGameObject: {fileID: 0}
  m_DefaultColliderType: 1
  m_TilingRules:
  - m_Neighbors: 0200000002000000020000000200000001000000020000000100000001000000
    m_Sprites:
    - {fileID: 21300000, guid: 18c2e9875be795244a037ebf31368a4b, type: 3}
    m_GameObject: {fileID: 0}
    m_AnimationSpeed: 1
    m_PerlinScale: 0.5
    m_RuleTransform: 0
    m_Output: 0
    m_ColliderType: 1
    m_RandomTransform: 0
  - m_Neighbors: 0000000002000000000000000100000001000000010000000100000001000000
    m_Sprites:
    - {fileID: 21300002, guid: 18c2e9875be795244a037ebf31368a4b, type: 3}
    m_GameObject: {fileID: 0}
    m_AnimationSpeed: 1
    m_PerlinScale: 0.5
    m_RuleTransform: 0
    m_Output: 0
    m_ColliderType: 1
    m_RandomTransform: 0
  - m_Neighbors: 0200000002000000020000000100000002000000010000000100000002000000
    m_Sprites:
    - {fileID: 21300004, guid: 18c2e9875be795244a037ebf31368a4b, type: 3}
    m_GameObject: {fileID: 0}
    m_AnimationSpeed: 1
    m_PerlinScale: 0.5
    m_RuleTransform: 0
    m_Output: 0
    m_ColliderType: 1
    m_RandomTransform: 0
  - m_Neighbors: 0000000001000000010000000200000001000000000000000100000001000000
    m_Sprites:
    - {fileID: 21300016, guid: 18c2e9875be795244a037ebf31368a4b, type: 3}
    m_GameObject: {fileID: 0}
    m_AnimationSpeed: 1
    m_PerlinScale: 0.5
    m_RuleTransform: 0
    m_Output: 0
    m_ColliderType: 1
    m_RandomTransform: 0
  - m_Neighbors: 0100000001000000010000000100000001000000010000000100000001000000
    m_Sprites:
    - {fileID: 21300018, guid: 18c2e9875be795244a037ebf31368a4b, type: 3}
    - {fileID: 21300040, guid: 18c2e9875be795244a037ebf31368a4b, type: 3}
    m_GameObject: {fileID: 0}
    m_AnimationSpeed: 1
    m_PerlinScale: 0.593
    m_RuleTransform: 0
    m_Output: 1
    m_ColliderType: 1
    m_RandomTransform: 0
  - m_Neighbors: 0100000001000000000000000100000002000000010000000100000000000000
    m_Sprites:
    - {fileID: 21300020, guid: 18c2e9875be795244a037ebf31368a4b, type: 3}
    m_GameObject: {fileID: 0}
    m_AnimationSpeed: 1
    m_PerlinScale: 0.5
    m_RuleTransform: 0
    m_Output: 0
    m_ColliderType: 1
    m_RandomTransform: 0
  - m_Neighbors: 0200000001000000010000000200000001000000020000000200000002000000
    m_Sprites:
    - {fileID: 21300034, guid: 18c2e9875be795244a037ebf31368a4b, type: 3}
    m_GameObject: {fileID: 0}
    m_AnimationSpeed: 1
    m_PerlinScale: 0.5
    m_RuleTransform: 0
    m_Output: 0
    m_ColliderType: 1
    m_RandomTransform: 0
  - m_Neighbors: 0100000001000000010000000100000001000000000000000200000000000000
    m_Sprites:
    - {fileID: 21300036, guid: 18c2e9875be795244a037ebf31368a4b, type: 3}
    m_GameObject: {fileID: 0}
    m_AnimationSpeed: 1
    m_PerlinScale: 0.5
    m_RuleTransform: 0
    m_Output: 0
    m_ColliderType: 1
    m_RandomTransform: 0
  - m_Neighbors: 0100000001000000020000000100000002000000020000000200000002000000
    m_Sprites:
    - {fileID: 21300038, guid: 18c2e9875be795244a037ebf31368a4b, type: 3}
    m_GameObject: {fileID: 0}
    m_AnimationSpeed: 1
    m_PerlinScale: 0.5
    m_RuleTransform: 0
    m_Output: 0
    m_ColliderType: 1
    m_RandomTransform: 0
  - m_Neighbors: 0100000001000000010000000100000001000000010000000100000002000000
    m_Sprites:
    - {fileID: 21300008, guid: 18c2e9875be795244a037ebf31368a4b, type: 3}
    m_GameObject: {fileID: 0}
    m_AnimationSpeed: 1
    m_PerlinScale: 0.5
    m_RuleTransform: 0
    m_Output: 0
    m_ColliderType: 1
    m_RandomTransform: 0
  - m_Neighbors: 0100000001000000010000000100000001000000020000000100000001000000
    m_Sprites:
    - {fileID: 21300010, guid: 18c2e9875be795244a037ebf31368a4b, type: 3}
    m_GameObject: {fileID: 0}
    m_AnimationSpeed: 1
    m_PerlinScale: 0.5
    m_RuleTransform: 0
    m_Output: 0
    m_ColliderType: 1
    m_RandomTransform: 0
  - m_Neighbors: 0100000001000000020000000100000001000000010000000100000001000000
    m_Sprites:
    - {fileID: 21300024, guid: 18c2e9875be795244a037ebf31368a4b, type: 3}
    m_GameObject: {fileID: 0}
    m_AnimationSpeed: 1
    m_PerlinScale: 0.5
    m_RuleTransform: 0
    m_Output: 0
    m_ColliderType: 1
    m_RandomTransform: 0
  - m_Neighbors: 0200000001000000010000000100000001000000010000000100000001000000
    m_Sprites:
    - {fileID: 21300012, guid: 18c2e9875be795244a037ebf31368a4b, type: 3}
    m_GameObject: {fileID: 0}
    m_AnimationSpeed: 1
    m_PerlinScale: 0.5
    m_RuleTransform: 0
    m_Output: 0
    m_ColliderType: 1
    m_RandomTransform: 0
